<svg width="24" height="24" viewBox="0 0 24 24" fill="none" xmlns="http://www.w3.org/2000/svg">
<circle cx="12" cy="12" r="12" fill="#FFDDDD"/>
<rect x="7.2002" y="11.2031" width="9.6" height="1.6" rx="0.8" fill="#EE4848"/>
</svg>
