<svg
 width="40px" 
 height="40px" 
 viewBox="0 0 24 24" fill="none"
  xmlns="http://www.w3.org/2000/svg">

  <g id="SVGRepo_bgCarrier" stroke-width="2">
  </g>
  <g id="SVGRepo_tracerCarrier" stroke-linecap="round" stroke-linejoin="round"></g>
  <g id="SVGRepo_iconCarrier"> <g clip-path="url(#clip0_429_10970)"> 

  <!-- <circle cx="12" cy="11.999" r="9" stroke="#ffff" stroke-width="1" stroke-linecap="round" 
  stroke-linejoin="round"></circle>  -->
  
  <!-- <path d="M12 9V15" stroke="#fff" stroke-width="2" 
  stroke-linecap="round" stroke-linejoin="round"></path> -->
   <path d="M9 12H15" stroke="#ffff" stroke-width="2" stroke-linecap="round" stroke-linejoin="round"></path> 
   </g> <defs> <clipPath id="clip0_429_10970"> <rect width="24" height="24" fill="white"></rect> 
   </clipPath> </defs> </g></svg>