<svg width="14" height="10" viewBox="0 0 14 10" fill="none" xmlns="http://www.w3.org/2000/svg">
<path d="M0.599609 4.44531L2.29961 2.74531L5.69961 6.14531L11.6496 0.195312L13.3496 1.89531L5.69961 9.54531L0.599609 4.44531Z" fill="white"/>
</svg>
