<!DOCTYPE svg PUBLIC "-//W3C//DTD SVG 1.1//EN" "http://www.w3.org/Graphics/SVG/1.1/DTD/svg11.dtd">

<!-- Uploaded to: SVG Repo, www.svgrepo.com, Transformed by: SVG Repo Mixer Tools -->
<svg fill="#FF6C2C" height="30px" width="30px" version="1.1" id="Capa_1" xmlns="http://www.w3.org/2000/svg" xmlns:xlink="http://www.w3.org/1999/xlink" viewBox="0 0 482.14 482.14" xml:space="preserve" stroke="#FF6C2C">

<g id="SVGRepo_bgCarrier" stroke-width="0"/>

<g id="SVGRepo_tracerCarrier" stroke-linecap="round" stroke-linejoin="round"/>

<g id="SVGRepo_iconCarrier"> <g> <path d="M315.459,0H121.812C93.521,0,70.496,23.041,70.496,51.315v189.754h-5.012c-11.418,0-20.677,9.251-20.677,20.679v125.404 c0,11.427,9.259,20.677,20.677,20.677h5.012v22.995c0,28.305,23.025,51.315,51.316,51.315h264.221 c28.275,0,51.3-23.011,51.3-51.315V121.449L315.459,0z M94.507,283.228H120.7l8.518,29.029c2.711,10.057,5.423,20.9,7.361,31.097 h0.386c2.452-10.071,5.415-21.546,8.258-31.222l9.291-28.904h25.673l4.775,86.966h-19.227l-1.291-33.286 c-0.387-10.466-0.773-23.105-0.773-35.745h-0.385c-2.711,11.095-6.32,23.483-9.677,33.68l-10.584,33.933h-15.351l-9.291-33.68 c-2.844-10.197-5.806-22.584-7.871-33.933h-0.261c-0.512,11.743-0.906,25.153-1.551,35.997l-1.546,33.034H88.959L94.507,283.228z M386.033,450.713H121.812c-10.955,0-19.874-8.92-19.874-19.889v-22.995h246.31c11.418,0,20.678-9.25,20.678-20.677V261.748 c0-11.428-9.26-20.679-20.678-20.679h-246.31V51.315c0-10.938,8.919-19.858,19.874-19.858l181.89-0.19v67.233 c0,19.638,15.934,35.587,35.585,35.587l65.864-0.189l0.741,296.925C405.891,441.793,396.987,450.713,386.033,450.713z M200.125,370.194v-85.815c6.06-1.024,14.578-1.796,26.58-1.796c12.126,0,20.772,2.315,26.579,6.965 c5.548,4.382,9.291,11.615,9.291,20.127c0,8.51-2.837,15.745-7.998,20.646c-6.714,6.32-16.642,9.157-28.259,9.157 c-2.584,0-4.901-0.128-6.714-0.379v31.096H200.125z M293.457,332.904h-7.998v-14.072h7.612c6.579-0.128,14.964-2.569,14.964-9.677 c0-5.029-4.128-8.764-12.388-8.764c-6.839,0-14.058,2.963-17.549,5.027l-3.995-14.2c5.027-3.215,15.098-6.32,25.933-6.32 c17.935,0,27.873,9.426,27.873,20.898c0,8.904-5.029,15.87-15.351,19.496v0.252c10.062,1.813,18.186,9.426,18.186,20.393 c0,14.832-13.033,25.676-34.316,25.676c-10.844,0-20.009-2.838-24.91-5.942l4.003-14.704c3.483,1.813,11.482,5.169,19.479,5.169 c10.197,0,15.359-4.917,15.359-11.237C310.361,336.641,302.101,332.904,293.457,332.904z"/> <path d="M243.095,310.194c0-8.007-5.555-12.782-15.359-12.782c-4.002,0-6.713,0.395-8.132,0.773v25.69 c1.679,0.378,3.744,0.504,6.588,0.504C236.641,324.379,243.095,319.1,243.095,310.194z"/> </g> </g>

</svg>