<svg width="21" height="18" viewBox="0 0 21 18" fill="none" xmlns="http://www.w3.org/2000/svg">
<path d="M1 14.8939C1.08014 14.4498 1.1484 14.0022 1.29087 13.57C1.83848 11.9229 2.8882 10.677 4.34701 9.75967C4.94075 9.38738 5.58426 9.10065 6.25845 8.908C6.30545 8.89418 6.35195 8.87593 6.43258 8.84829C4.9807 7.87721 4.23224 6.55678 4.37421 4.81939C4.46721 3.67856 4.98515 2.72426 5.86815 1.98855C7.60547 0.539818 10.1897 0.702651 11.6831 2.35073C12.5735 3.3376 12.9643 4.49816 12.7714 5.81415C12.579 7.1188 11.8775 8.11554 10.7615 8.81869C10.8075 8.89862 10.8768 8.89714 10.9337 8.91441C12.5815 9.41278 13.9349 10.334 14.946 11.727C15.7034 12.7608 16.1341 13.9967 16.1827 15.2763C16.201 15.6913 16.1961 16.1072 16.1877 16.5222C16.1803 16.8676 15.9077 17.0734 15.6059 16.9757C15.4194 16.915 15.3091 16.7482 15.3032 16.5005C15.2982 16.2044 15.3032 15.9084 15.3032 15.6123C15.2903 13.7447 14.5305 12.2308 13.1053 11.0416C12.0408 10.1534 10.8046 9.64963 9.42787 9.50111C7.57183 9.30127 5.86073 9.7049 4.35196 10.8166C2.94014 11.8573 2.08929 13.2502 1.89735 15.0069C1.84788 15.4367 1.88152 15.8743 1.8741 16.3086C1.87261 16.409 1.86568 16.5093 1.85332 16.6091C1.84795 16.698 1.81341 16.7826 1.75504 16.8501C1.69667 16.9175 1.6177 16.9639 1.5303 16.9821C1.33688 17.0314 1.18402 16.9663 1.06579 16.8119C1.047 16.7872 1.02374 16.7655 1.00297 16.7423L1 14.8939ZM8.5879 8.55075C9.02724 8.55023 9.46218 8.4634 9.86788 8.29522C10.2736 8.12703 10.6421 7.88079 10.9524 7.57054C11.2627 7.2603 11.5087 6.89213 11.6763 6.48705C11.844 6.08198 11.93 5.64793 11.9295 5.2097C11.929 4.77146 11.8419 4.33762 11.6733 3.93294C11.5047 3.52826 11.2578 3.16067 10.9468 2.85116C10.6358 2.54165 10.2667 2.29627 9.86057 2.12905C9.45447 1.96182 9.01933 1.87602 8.57999 1.87654C6.73879 1.87654 5.24238 3.37707 5.24386 5.22203C5.24136 5.66045 5.3262 6.09499 5.49345 6.50043C5.66071 6.90586 5.90704 7.27412 6.21816 7.58381C6.52927 7.8935 6.89896 8.13845 7.30577 8.30444C7.71258 8.47043 8.14839 8.55416 8.5879 8.55075Z" fill="#FF6C2C" stroke="#FF6C2C" stroke-width="0.2"/>
<path d="M17.8644 5.89817C17.8916 7.03307 17.4765 7.96616 16.5995 8.69447C16.5436 8.74085 16.4372 8.76602 16.4511 8.84596C16.4649 8.92589 16.5713 8.92343 16.6391 8.94908C18.2418 9.55749 19.4053 10.6243 20.0524 12.2225C20.2872 12.8016 20.4048 13.4212 20.3986 14.0458C20.3962 14.3226 20.4026 14.5999 20.3962 14.8762C20.3907 15.1259 20.222 15.304 19.993 15.3203C19.764 15.3366 19.574 15.1866 19.5349 14.9369C19.4825 14.5999 19.5216 14.2585 19.5087 13.9195C19.4671 12.8147 19.0516 11.8638 18.2967 11.0664C17.3183 10.0332 16.1018 9.5121 14.6801 9.46127C14.5856 9.45775 14.4916 9.44603 14.3991 9.42624C14.3022 9.40708 14.2149 9.35521 14.1518 9.27936C14.0888 9.20351 14.0538 9.10831 14.0529 9.00978C14.0503 8.90792 14.0847 8.80856 14.1498 8.73004C14.2149 8.65151 14.3063 8.59909 14.4071 8.58246C14.599 8.54792 14.7964 8.54299 14.9873 8.50598C16.0816 8.29232 16.8894 7.36269 16.9779 6.25492C17.0961 4.77462 15.9124 3.60468 14.6034 3.57261C14.5406 3.56904 14.4782 3.55979 14.417 3.54497C14.1751 3.49217 14.0306 3.29826 14.0558 3.0693C14.0801 2.8512 14.2591 2.69281 14.501 2.68787C15.059 2.67932 15.6094 2.81751 16.0969 3.08854C17.1426 3.65205 17.8302 4.74501 17.8644 5.89817Z" fill="#FF6C2C" stroke="#FF6C2C" stroke-width="0.2"/>
</svg>
