<svg width="85" height="85" viewBox="0 0 85 85" fill="none" xmlns="http://www.w3.org/2000/svg">
<circle opacity="0.2" cx="42.2892" cy="42.7238" r="41.9504" fill="#FF6C2C"/>
<g clip-path="url(#clip0_836_952)">
<path d="M34.8708 56.1469C34.8708 55.2809 34.8708 54.4149 34.8708 53.5489C34.8708 52.8887 34.6321 52.6599 33.9686 52.6588C32.4589 52.6588 30.9492 52.6489 29.4396 52.6588C29.0841 52.6588 28.9257 52.5817 28.9334 52.1812C28.9565 50.9576 28.9477 49.7341 28.9334 48.5105C28.928 48.3954 28.9507 48.2808 28.9996 48.1765C29.0485 48.0722 29.1221 47.9814 29.214 47.9119C29.9566 47.2972 30.6024 46.5743 31.1297 45.7673C31.2407 45.5939 31.4002 45.4569 31.5885 45.3734C33.981 44.2688 36.4482 43.3338 38.9718 42.5752C39.4725 42.4256 39.5143 42.4366 39.5737 42.9549C39.7377 44.3853 40.4804 45.3635 41.8327 45.8157C43.7517 46.4594 45.7576 45.1555 46.0085 43.1331C46.0602 42.7139 46.1835 42.4003 46.5961 42.2429C46.6847 42.2107 46.7652 42.1592 46.8316 42.0922C47.33 41.5508 47.8934 41.6157 48.5492 41.7852C52.0128 42.6659 55.3278 44.0522 58.3873 45.8994C58.8055 46.1525 58.8066 46.1558 58.4534 46.5035C56.8817 48.0435 55.5028 49.7686 54.3469 51.641C54.2865 51.7625 54.19 51.8625 54.0707 51.9273C53.9514 51.9921 53.815 52.0185 53.6801 52.003C53.2003 51.9799 52.7195 51.9909 52.2386 52.003C51.6522 52.0129 51.4101 52.2505 51.4002 52.8304C51.3914 53.3256 51.3892 53.8207 51.4002 54.3159C51.4077 54.4247 51.39 54.5337 51.3484 54.6345C51.3068 54.7353 51.2424 54.8251 51.1603 54.8969C50.7022 55.3388 50.3871 55.908 50.2558 56.5309C50.0666 57.3187 49.8564 58.1022 49.6748 58.8911C49.611 59.1717 49.4768 59.2696 49.1929 59.2674C47.6007 59.2575 46.0096 59.2674 44.4174 59.2674C44.3074 59.2674 44.1709 59.3048 44.1093 59.2058C44.0312 59.0815 44.1533 58.9758 44.2193 58.8757C45.1766 57.4328 46.135 55.991 47.0945 54.5503C47.5644 53.8416 47.4246 53.5005 46.6016 53.2882C46.1229 53.1649 45.6476 53.0274 45.1634 52.9317C44.8454 52.8689 44.742 52.7116 44.7453 52.398C44.7596 51.0776 44.7519 49.7572 44.7508 48.4368C44.7565 48.2995 44.7528 48.162 44.7398 48.0252C44.7013 47.749 44.5759 47.5323 44.2931 47.4376C44.0103 47.343 43.7792 47.4707 43.6076 47.6852C43.0948 48.33 42.5908 48.9836 42.0858 49.6339C41.116 50.881 40.147 52.128 39.1787 53.3751C38.722 53.966 38.8189 54.3335 39.5011 54.6097C40.213 54.898 40.9238 55.1907 41.6423 55.4646C41.9097 55.567 41.9658 55.6957 41.8492 55.9609C41.4179 56.9424 40.9964 57.9279 40.5849 58.9175C40.5519 59.0284 40.4811 59.1242 40.3848 59.1883C40.2886 59.2524 40.1729 59.2808 40.0579 59.2685C38.466 59.2575 36.8742 59.2575 35.2824 59.2685C34.9523 59.2685 34.8576 59.1442 34.8631 58.8284C34.8807 57.9371 34.8708 57.0403 34.8708 56.1469Z" fill="#FF6C2C"/>
<path d="M48.7624 35.9112C48.8945 38.9284 46.6817 41.5483 43.7647 42.0346C40.61 42.5617 37.4806 40.3841 36.9426 37.2107C36.6994 35.7902 36.8799 34.3895 37.265 33.014C37.4212 32.4639 37.6226 31.9137 37.7953 31.3635C37.9208 30.9641 38.186 30.799 38.5997 30.8134C39.1081 30.8366 39.6015 30.9933 40.0301 31.2678C41.8838 32.3813 43.7368 32.3813 45.5891 31.2678C46.0677 30.9784 46.5794 30.7946 47.1471 30.8211C47.2855 30.8165 47.4217 30.8569 47.5351 30.9363C47.6486 31.0157 47.7333 31.1296 47.7765 31.2612C48.3212 32.7753 48.8043 34.3058 48.7624 35.9112Z" fill="#FF6C2C"/>
<path d="M23.6694 48.1771C23.6418 47.2055 24.027 46.3924 24.6068 45.6464C26.3454 43.3951 28.0707 41.135 29.8126 38.8859C30.0816 38.5389 30.2658 38.1338 30.3506 37.703C30.6477 36.2924 30.9646 34.885 31.2826 33.4777C31.3927 32.9748 31.6424 32.7559 32.0121 32.8032C32.2597 32.8351 32.427 32.9231 32.2113 33.1982C31.7569 33.7803 31.6193 34.457 31.6347 35.1788C31.6545 36.0294 31.5841 36.8821 31.6787 37.7327C31.7356 38.2986 31.9872 38.8272 32.3907 39.2281C32.5832 39.4217 32.5744 39.5747 32.3907 39.7485C31.7899 40.3284 31.5434 41.07 31.3827 41.8689C30.8491 44.524 29.434 46.5585 27.0826 47.9153C26.8361 48.0583 26.769 48.1826 26.9231 48.4269C27.0188 48.5766 27.0826 48.7471 27.1673 48.9034C27.2058 48.9749 27.2697 49.0981 27.3082 49.0926C27.8991 49.0167 27.6603 49.4667 27.6713 49.7022C27.6988 50.3338 27.6713 50.9676 27.6845 51.5992C27.6922 51.9084 27.5745 51.9975 27.2741 51.9997C25.3562 52.0096 23.6683 50.2315 23.6694 48.1771Z" fill="#FF6C2C"/>
<path d="M51.6687 59.261C50.7786 59.2533 50.8259 59.3512 51.0316 58.4908C51.1626 57.9406 51.3012 57.397 51.4399 56.8524C51.6941 55.8522 52.2453 55.3614 53.2686 55.2437C53.6208 55.203 53.832 55.0137 53.9949 54.7133C54.9236 52.9968 55.9095 51.3165 57.1418 49.7937C57.9042 48.8389 58.729 47.9357 59.611 47.0901C59.808 46.9031 59.9565 46.8701 60.1744 47.0417C60.4891 47.2838 60.8346 47.4918 61.1471 47.7327C62.0362 48.4083 62.2089 49.4273 61.5872 50.3504C60.1826 52.4551 58.1764 54.0878 55.8302 55.0357C55.2019 55.2943 54.7442 55.6321 54.4383 56.2648C53.9597 57.2551 53.2499 58.1079 52.6062 58.9969C52.3279 59.3776 51.9658 59.2159 51.6687 59.261Z" fill="#FF6C2C"/>
<path d="M42.7925 61.8967H28.258C27.6231 61.8967 27.6198 61.8967 27.6231 61.275C27.6231 60.4343 27.5439 60.5202 28.3703 60.5202C37.9909 60.5202 47.6109 60.5202 57.23 60.5202C57.3544 60.5202 57.4776 60.5202 57.6009 60.5202C57.6691 60.5202 57.7571 60.5026 57.8033 60.5367C58.1939 60.8272 57.9133 61.242 57.9816 61.5952C58.0201 61.7944 57.9056 61.9011 57.6944 61.8945C57.5579 61.8945 57.4204 61.8945 57.2829 61.8945L42.7925 61.8967Z" fill="#FF6C2C"/>
<path d="M42.7196 23.5493C47.121 23.5493 50.7521 26.7205 51.3243 30.9645C51.3298 31.0053 51.3375 31.046 51.3441 31.0867C51.519 32.1738 51.4816 32.2079 50.4242 32.1958C50.126 32.1958 49.9995 32.0858 49.9841 31.7997C49.9647 31.084 49.8229 30.3769 49.5648 29.709C48.4557 26.9362 46.4388 25.3187 43.4579 24.9974C39.6354 24.5859 36.2551 27.3708 35.6818 31.0592C35.6477 31.2777 35.6286 31.4983 35.6246 31.7194C35.618 32.0726 35.4783 32.2112 35.0997 32.2046C34.1292 32.187 34.1094 32.1815 34.2327 31.2143C34.73 27.373 37.4006 24.4846 41.1857 23.6924C41.6894 23.5831 42.2044 23.535 42.7196 23.5493Z" fill="#FF6C2C"/>
<path d="M37.3369 29.856C37.4304 29.4445 37.6252 29.1617 37.8112 28.8778C40.3067 25.074 45.9955 25.3567 48.0972 29.3906C48.1588 29.5094 48.2875 29.658 48.2072 29.7658C48.1038 29.9001 47.964 29.7394 47.843 29.702C46.8197 29.3862 45.8921 29.6646 45.0184 30.1817C44.345 30.5801 43.6485 30.8607 42.8529 30.8684C42.0574 30.8761 41.3235 30.6208 40.6412 30.2081C39.8479 29.7229 38.9962 29.461 38.0565 29.6305C37.812 29.69 37.5716 29.7653 37.3369 29.856Z" fill="#FF6C2C"/>
<path d="M43.4935 49.9141V51.9035C43.4935 52.2886 43.4935 52.6737 43.4935 53.0577C43.5012 53.6079 43.6509 53.795 44.1746 53.9292C44.5861 54.0392 44.9966 54.1493 45.4114 54.2406C45.6821 54.3011 45.7162 54.4145 45.5677 54.6378C44.5891 56.1006 43.6138 57.5651 42.6418 59.0315C42.6006 59.1007 42.5421 59.1579 42.4721 59.1977C42.4021 59.2374 42.3229 59.2583 42.2424 59.2582C41.8452 59.267 41.7957 59.2142 41.9486 58.8466C42.2391 58.149 42.5395 57.4558 42.8366 56.756C42.9984 56.3764 43.1667 56.0001 43.3186 55.6171C43.5144 55.1264 43.3967 54.8403 42.9026 54.6356C42.2167 54.3517 41.5287 54.0763 40.8384 53.8093C40.5875 53.7113 40.5589 53.5892 40.7217 53.3856C41.5767 52.293 42.4262 51.196 43.28 50.1011C43.3473 50.0345 43.4186 49.972 43.4935 49.9141Z" fill="#FF6C2C"/>
<path d="M52.7171 36.1468C52.7171 36.6002 52.7281 37.0535 52.7171 37.5068C52.7163 37.8485 52.5803 38.176 52.3389 38.4178C52.0975 38.6596 51.7703 38.7961 51.4286 38.7975C50.9082 38.8119 50.3866 38.7975 49.8651 38.7975C49.5933 38.8031 49.5273 38.6963 49.6164 38.4465C50.1434 36.9633 50.0664 35.4514 49.799 33.9351C49.7396 33.5929 49.7858 33.418 50.1908 33.4488C50.5957 33.4796 51.0127 33.4488 51.4242 33.4598C51.765 33.4606 52.0916 33.5959 52.3332 33.8361C52.5749 34.0763 52.712 34.4021 52.7149 34.7428C52.7292 35.2126 52.7171 35.6803 52.7171 36.1468Z" fill="#FF6C2C"/>
<path d="M32.8901 36.086C32.8901 35.6459 32.8824 35.2057 32.8901 34.7656C32.8878 34.5934 32.9198 34.4225 32.9844 34.2629C33.0489 34.1033 33.1446 33.9582 33.266 33.836C33.3873 33.7139 33.5318 33.6172 33.6909 33.5516C33.8501 33.486 34.0208 33.4528 34.1929 33.454C34.6331 33.4419 35.0732 33.4661 35.5134 33.4463C35.8435 33.4309 35.8732 33.6025 35.8204 33.8567C35.7026 34.4223 35.6795 34.9978 35.63 35.5721C35.5587 36.5044 35.6708 37.4416 35.9601 38.3307C36.0976 38.7708 36.0888 38.7862 35.6146 38.7895C35.1745 38.7895 34.7343 38.7895 34.2942 38.7895C33.437 38.7807 32.8967 38.2317 32.889 37.3591C32.8901 36.9377 32.8901 36.5118 32.8901 36.086Z" fill="#FF6C2C"/>
<path d="M42.8227 44.7353C41.9556 44.7353 41.1777 44.2049 40.9158 43.4347C40.83 43.1805 40.8696 43.0661 41.1656 43.1387C42.2449 43.4028 43.3719 43.4028 44.4512 43.1387C44.7659 43.0639 44.7736 43.2003 44.6911 43.4391C44.5494 43.8202 44.2944 44.1487 43.9604 44.3804C43.6263 44.6122 43.2293 44.736 42.8227 44.7353Z" fill="#FF6C2C"/>
</g>
<defs>
<clipPath id="clip0_836_952">
<rect width="38.2897" height="38.3546" fill="white" transform="translate(23.668 23.5469)"/>
</clipPath>
</defs>
</svg>
